{
  "parent": "block/inner_stairs",
  "textures": {
    "bottom": "feur_builder:blocks/andesite_tiles_cracked",
    "top": "feur_builder:blocks/andesite_tiles_cracked",
    "side": "feur_builder:blocks/andesite_tiles_cracked"
  },
  "render_type": "solid"
}