{
  "parent": "block/stairs",
  "textures": {
    "bottom": "feur_builder:blocks/andesite_cracked_bricks",
    "top": "feur_builder:blocks/andesite_cracked_bricks",
    "side": "feur_builder:blocks/andesite_cracked_bricks"
  },
  "render_type": "solid"
}