{
  "parent": "block/wall_inventory",
  "textures": {
    "wall": "feur_builder:blocks/andesite_metro_tiles_small",
    "particle": "feur_builder:blocks/andesite_metro_tiles_small"
  },
  "render_type": "solid"
}