{
  "parent": "block/cube_all",
  "textures": {
    "all": "feur_builder:blocks/andesite_metro_tiles_small",
    "particle": "feur_builder:blocks/andesite_metro_tiles_small"
  },
  "render_type": "solid"
}