{
  "parent": "block/cube_bottom_top",
  "textures": {
    "bottom": "feur_builder:blocks/andesite_metro_tiles",
    "top": "feur_builder:blocks/andesite_metro_tiles",
    "side": "feur_builder:blocks/andesite_metro_tiles"
  },
  "render_type": "solid"
}