{
  "parent": "block/template_wall_post",
  "textures": {
    "wall": "feur_builder:blocks/andesite_tiles_small",
    "particle": "feur_builder:blocks/andesite_tiles_small"
  },
  "render_type": "solid"
}