{
  "parent": "block/wall_inventory",
  "textures": {
    "wall": "feur_builder:blocks/andesite_mossy_bricks",
    "particle": "feur_builder:blocks/andesite_mossy_bricks"
  },
  "render_type": "solid"
}