{
  "parent": "block/template_wall_post",
  "textures": {
    "wall": "feur_builder:blocks/black_leaves_flowering",
    "particle": "feur_builder:blocks/black_leaves_flowering"
  },
  "render_type": "cutout"
}