{
  "parent": "block/slab_top",
  "textures": {
    "bottom": "feur_builder:blocks/andesite_cobbled",
    "top": "feur_builder:blocks/andesite_cobbled",
    "side": "feur_builder:blocks/andesite_cobbled"
  },
  "render_type": "solid"
}