{
  "parent": "block/cube_bottom_top",
  "textures": {
    "bottom": "feur_builder:blocks/cyan_planks",
    "top": "feur_builder:blocks/cyan_planks",
    "side": "feur_builder:blocks/cyan_planks"
  },
  "render_type": "solid"
}