{
  "parent": "block/slab",
  "textures": {
    "bottom": "feur_builder:blocks/grey_planks",
    "top": "feur_builder:blocks/grey_planks",
    "side": "feur_builder:blocks/grey_planks"
  },
  "render_type": "solid"
}