{
  "parent": "block/outer_stairs",
  "textures": {
    "bottom": "feur_builder:blocks/andesite__mossy_cobbled",
    "top": "feur_builder:blocks/andesite__mossy_cobbled",
    "side": "feur_builder:blocks/andesite__mossy_cobbled"
  },
  "render_type": "solid"
}