{
  "parent": "block/wall_inventory",
  "textures": {
    "wall": "feur_builder:blocks/pink_leaves_flowering",
    "particle": "feur_builder:blocks/pink_leaves_flowering"
  },
  "render_type": "cutout"
}