{
  "parent": "block/outer_stairs",
  "textures": {
    "bottom": "feur_builder:blocks/pink_planks",
    "top": "feur_builder:blocks/pink_planks",
    "side": "feur_builder:blocks/pink_planks"
  },
  "render_type": "solid"
}