{
  "parent": "block/slab_top",
  "textures": {
    "bottom": "feur_builder:blocks/purple_planks",
    "top": "feur_builder:blocks/purple_planks",
    "side": "feur_builder:blocks/purple_planks"
  },
  "render_type": "solid"
}