{
  "parent": "block/template_wall_side_tall",
  "textures": {
    "wall": "feur_builder:blocks/red_leaves_flowering",
    "particle": "feur_builder:blocks/red_leaves_flowering"
  },
  "render_type": "cutout"
}