{
  "parent": "block/outer_stairs",
  "textures": {
    "bottom": "feur_builder:blocks/andesite_smooth",
    "top": "feur_builder:blocks/andesite_smooth",
    "side": "feur_builder:blocks/andesite_smooth"
  },
  "render_type": "solid"
}