{
  "type": "minecraft:crafting_shaped",
  "pattern": [
    "012"
  ],
  "key": {
    "0": {
      "item": "feur_builder:cyan_planks"
    },
    "1": {
      "item": "feur_builder:cyan_planks"
    },
    "2": {
      "item": "feur_builder:cyan_planks"
    }
  },
  "result": {
    "item": "feur_builder:cyan_slab",
    "count": 6
  }
}