{
  "type": "minecraft:crafting_shaped",
  "pattern": [
    "01"
  ],
  "key": {
    "0": {
      "item": "feur_builder:yellow_planks"
    },
    "1": {
      "item": "feur_builder:yellow_planks"
    }
  },
  "result": {
    "item": "feur_builder:yellow_pressure_plate",
    "count": 1
  }
}