{
  "type": "minecraft:crafting_shaped",
  "pattern": [
    "0",
    "1"
  ],
  "key": {
    "0": {
      "item": "feur_builder:black_slab"
    },
    "1": {
      "item": "feur_builder:black_slab"
    }
  },
  "result": {
    "item": "feur_builder:black_beehive_planks",
    "count": 1
  }
}