{
  "variants": {
    "type=bottom": {
      "model": "feur_builder:block/green_slab"
    },
    "type=top": {
      "model": "feur_builder:block/green_slab_top"
    },
    "type=double": {
      "model": "feur_builder:block/green_slab_full"
    }
  }
}