{
  "variants": {
    "axis=x": {
      "model": "feur_builder:block/grey_log",
      "x": 90,
      "y": 90
    },
    "axis=y": {
      "model": "feur_builder:block/grey_log"
    },
    "axis=z": {
      "model": "feur_builder:block/grey_log",
      "x": 90
    }
  }
}