{
  "variants": {
    "powered=false": {
      "model": "feur_builder:block/purple_pressure_plate"
    },
    "powered=true": {
      "model": "feur_builder:block/purple_pressure_plate_down"
    }
  }
}